<?xml version="1.0" encoding="utf-8"?>
<!-- Generator: Adobe Illustrator 19.1.0, SVG Export Plug-In . SVG Version: 6.00 Build 0)  -->
<svg version="1.1" id="Layer_1" xmlns="http://www.w3.org/2000/svg" xmlns:xlink="http://www.w3.org/1999/xlink" x="0px" y="0px"
	 width="848px" height="162.7px" viewBox="-7 219.3 848 162.7" style="enable-background:new -7 219.3 848 162.7;"
	 xml:space="preserve">
<style type="text/css">
	.st0{fill:#8DC63F;}
	.st1{fill:#FFFFFF;}
	.st2{fill:#CCCCCC;}
	.st3{fill:#595959;}
	.st4{fill:#333333;}
	.st5{fill:#003650;}
	.st6{fill:#92949E;}
	.st7{fill:#666666;}
</style>
<g>
	<path class="st0" d="M162.5,228.8c14.6,0,26.5,11.9,26.5,26.5s-11.9,26.5-26.5,26.5S136,269.9,136,255.3S147.9,228.8,162.5,228.8"
		/>
	<path class="st1" d="M179.1,245.6c-1.1,0.5-2.4,0.9-3.7,1c1.3-0.8,2.3-2,2.8-3.5c-1.2,0.7-2.6,1.3-4.1,1.5c-1.2-1.2-2.8-2-4.7-2
		c-3.5,0-6.4,2.9-6.4,6.4c0,0.5,0.1,1,0.2,1.5c-5.3-0.3-10-2.8-13.2-6.7c-0.6,0.9-0.9,2-0.9,3.2c0,2.2,1.1,4.2,2.8,5.3
		c-1,0-2-0.3-2.9-0.8v0.1c0,3.1,2.2,5.7,5.1,6.3c-0.5,0.1-1.1,0.2-1.7,0.2c-0.4,0-0.8,0-1.2-0.1c0.8,2.5,3.2,4.4,6,4.4
		c-2.2,1.7-4.9,2.7-7.9,2.7c-0.5,0-1,0-1.5-0.1c2.8,1.8,6.2,2.9,9.8,2.9c11.7,0,18.2-9.7,18.2-18.2v-0.8
		C177.2,248,178.2,246.9,179.1,245.6"/>
	<path class="st0" d="M96.6,228.8c14.6,0,26.5,11.9,26.5,26.5s-11.9,26.5-26.5,26.5S70.1,270,70.1,255.3
		C70.1,240.6,82,228.8,96.6,228.8"/>
	<path class="st1" d="M106.8,257.7c1,1,2.1,2,3,3.1c0.4,0.5,0.8,1,1.1,1.6c0.4,0.8,0,1.7-0.7,1.8h-4.5c-1.2,0.1-2.1-0.4-2.9-1.2
		c-0.6-0.6-1.2-1.3-1.8-2c-0.2-0.3-0.5-0.5-0.8-0.7c-0.6-0.4-1.2-0.3-1.5,0.4c-0.4,0.7-0.4,1.4-0.5,2.1c0,1.1-0.4,1.3-1.4,1.4
		c-2.3,0.1-4.5-0.2-6.5-1.4c-1.8-1-3.2-2.5-4.4-4.1c-2.3-3.2-4.1-6.7-5.7-10.2c-0.4-0.8-0.1-1.2,0.8-1.3h4.4c0.6,0,1,0.4,1.2,0.9
		c0.8,2,1.8,3.8,3,5.6c0.3,0.5,0.7,0.9,1.1,1.2c0.5,0.4,0.9,0.2,1.2-0.3c0.2-0.4,0.2-0.8,0.3-1.2c0.1-1.4,0.1-2.7-0.1-4.1
		c-0.1-0.9-0.6-1.4-1.5-1.6c-0.4-0.1-0.4-0.2-0.2-0.5c0.4-0.4,0.7-0.7,1.4-0.7h5.1c0.8,0.2,1,0.5,1.1,1.3v5.7c0,0.3,0.2,1.2,0.7,1.5
		c0.5,0.1,0.8-0.2,1-0.5c1.2-1.3,2.1-2.8,2.9-4.4c0.3-0.7,0.6-1.4,0.9-2.2c0.2-0.5,0.6-0.8,1.2-0.8h4.9h0.4c0.8,0.1,1.1,0.5,0.8,1.3
		c-0.4,1.3-1.2,2.3-2,3.4c-0.8,1.1-1.7,2.2-2.5,3.4C105.8,256.2,105.8,256.8,106.8,257.7"/>
	<path class="st0" d="M228.5,228.8c14.6,0,26.5,11.9,26.5,26.5s-11.9,26.5-26.5,26.5S202,269.9,202,255.3S213.9,228.8,228.5,228.8"
		/>
	<path class="st1" d="M236.9,245.2c-1.7-1.7-4.1-2.6-6.8-2.6c-4,0-6.5,1.6-7.9,3c-1.7,1.7-2.6,4-2.6,6.2c0,2.8,1.2,5,3.1,5.8
		c0.1,0.1,0.3,0.1,0.4,0.1c0.4,0,0.7-0.3,0.9-0.7c0.1-0.3,0.2-0.9,0.3-1.1c0.1-0.5,0-0.8-0.3-1.2c-0.6-0.7-0.8-1.5-0.8-2.5
		c0-3.1,2.3-6.4,6.5-6.4c3.4,0,5.5,1.9,5.5,5c0,1.9-0.4,3.8-1.2,5.1c-0.5,0.9-1.5,2-2.9,2c-0.6,0-1.2-0.3-1.5-0.7s-0.4-1-0.3-1.5
		c0.2-0.6,0.4-1.3,0.6-1.9c0.4-1.2,0.7-2.3,0.7-3.2c0-1.5-0.9-2.5-2.3-2.5c-1.8,0-3.1,1.8-3.1,4.1c0,1.1,0.3,2,0.4,2.3
		c-0.2,0.9-1.5,6.5-1.8,7.6c-0.1,0.6-1,5.5,0.4,5.9c1.6,0.4,3.1-4.3,3.2-4.8c0.1-0.4,0.5-2.1,0.8-3.1c0.8,0.8,2,1.3,3.3,1.3
		c2.3,0,4.4-1,5.8-2.9c1.4-1.8,2.2-4.4,2.2-7.2C239.5,249,238.5,246.8,236.9,245.2"/>
	<path class="st0" d="M426.5,228.8c14.6,0,26.5,11.9,26.5,26.5s-11.9,26.5-26.5,26.5S400,269.9,400,255.3S411.9,228.8,426.5,228.8"
		/>
	<path class="st1" d="M436.8,242.7h-20.5c-1.3,0-2.4,1.1-2.4,2.4v20.5c0,1.3,1.1,2.4,2.4,2.4h20.5c1.3,0,2.4-1.1,2.4-2.4v-20.5
		C439.1,243.7,438.1,242.7,436.8,242.7 M431.1,246.5c0-0.9,0.7-1.6,1.6-1.6h2c0.9,0,1.6,0.7,1.6,1.6v2.4c0,0.9-0.7,1.6-1.6,1.6h-2
		c-0.9,0-1.6-0.7-1.6-1.6V246.5z M426.5,249.7c3.1,0,5.6,2.5,5.6,5.6s-2.5,5.6-5.6,5.6s-5.6-2.5-5.6-5.6S423.4,249.7,426.5,249.7
		 M436.8,266.3h-20.5c-0.4,0-0.8-0.4-0.8-0.8v-12.2h0.8h2.6h0.8c-0.2,0.6-0.3,1.3-0.3,1.9c0,3.9,3.2,7.2,7.2,7.2s7.2-3.2,7.2-7.2
		c0-0.7-0.1-1.3-0.3-1.9h0.8h2.6h0.8v12.2C437.6,266,437.2,266.3,436.8,266.3"/>
	<path class="st0" d="M360.5,228.8c14.6,0,26.5,11.9,26.5,26.5s-11.9,26.5-26.5,26.5S334,269.9,334,255.3S345.9,228.8,360.5,228.8"
		/>
	<path class="st1" d="M369.8,254h-11.1v3.7h6.8c-1,3.2-4,5.6-7.6,5.6c-4.4,0-8-3.6-8-8s3.6-8,8-8c2.2,0,4.2,0.9,5.7,2.4l2.7-2.9
		c-2.2-2.1-5.1-3.4-8.4-3.4c-6.6,0-11.9,5.3-11.9,11.9c0,6.6,5.3,11.9,11.9,11.9c5.8,0,10.8-4.1,11.9-9.5V254L369.8,254z"/>
	<polygon class="st1" points="377.1,254 374.8,254 374.8,251.7 372.8,251.7 372.8,254 370.6,254 370.6,255.9 372.8,255.9 
		372.8,258.2 374.8,258.2 374.8,255.9 377.1,255.9 	"/>
	<path class="st0" d="M30.6,228.8c14.6,0,26.5,11.9,26.5,26.5s-11.9,26.5-26.5,26.5S4.1,270,4.1,255.3
		C4.1,240.6,16,228.8,30.6,228.8"/>
	<path class="st1" d="M36.9,242.7h-3.3c-3.7,0-6.1,2.4-6.1,6.2v2.9h-3.3c-0.3,0-0.5,0.2-0.5,0.5v4.2c0,0.3,0.2,0.5,0.5,0.5h3.3v10.5
		c0,0.3,0.2,0.5,0.5,0.5h4.3c0.3,0,0.5-0.2,0.5-0.5V257h3.9c0.3,0,0.5-0.2,0.5-0.5v-4.2c0-0.1-0.1-0.3-0.2-0.4
		c-0.1-0.1-0.2-0.2-0.4-0.2h-3.9v-2.4c0-1.2,0.3-1.8,1.8-1.8h2.2c0.3,0,0.5-0.2,0.5-0.5v-3.9C37.4,242.9,37.2,242.7,36.9,242.7"/>
	<path class="st0" d="M294.5,228.8c14.6,0,26.5,11.9,26.5,26.5s-11.9,26.5-26.5,26.5S268,269.9,268,255.3S279.9,228.8,294.5,228.8"
		/>
	<path class="st1" d="M301.8,261.1h-1.4v-0.8c0-0.4,0.3-0.7,0.7-0.7h0.1c0.4,0,0.7,0.3,0.7,0.7L301.8,261.1z M296.6,259.4
		c-0.4,0-0.6,0.2-0.6,0.5v3.9c0,0.3,0.3,0.5,0.6,0.5c0.4,0,0.6-0.2,0.6-0.5v-3.9C297.2,259.6,297,259.4,296.6,259.4 M305.1,257.2
		v7.5c0,1.8-1.6,3.3-3.4,3.3h-14.2c-1.9,0-3.4-1.5-3.4-3.3v-7.5c0-1.8,1.5-3.3,3.4-3.3h14.2C303.5,254,305.1,255.4,305.1,257.2
		 M288.4,265.5v-7.9h1.8v-1.2h-4.7v1.1h1.5v7.9L288.4,265.5L288.4,265.5L288.4,265.5z M293.7,258.8h-1.5v4.2v1
		c-0.1,0.3-0.7,0.7-0.9,0v-1v-4.2h-1.5v4.2v1.3c0,0.4,0,0.8,0.4,1.1c0.7,0.5,1.9-0.1,2.2-0.7v0.9h1.2L293.7,258.8z M298.3,263.6
		v-3.5c0-1.3-1-2.1-2.3-1.1v-2.6h-1.5v9h1.2l0.1-0.6C297.4,266.3,298.3,265.3,298.3,263.6 M302.9,263.1h-1.1v0.1v0.6
		c0,0.3-0.3,0.6-0.6,0.6H301c-0.3,0-0.6-0.3-0.6-0.6v-0.7v-0.9h2.5v-0.9c0-0.7,0-1.4-0.1-1.8c-0.2-1.3-1.9-1.4-2.8-0.8
		c-0.3,0.2-0.5,0.5-0.6,0.8c-0.1,0.4-0.2,0.9-0.2,1.5v2.1C299.2,266.6,303.4,266.1,302.9,263.1 M297.3,251.8
		c0.1,0.2,0.2,0.3,0.4,0.4c0.2,0.1,0.4,0.2,0.6,0.2s0.4-0.1,0.6-0.2c0.2-0.1,0.3-0.3,0.4-0.5v0.6h1.6v-6.9h-1.3v5.4
		c0,0.3-0.2,0.5-0.5,0.5s-0.5-0.2-0.5-0.5v-5.4h-1.3v4.7v1.2C297.2,251.5,297.2,251.7,297.3,251.8 M292.3,247.9
		c0-0.7,0.1-1.2,0.2-1.6c0.1-0.4,0.3-0.7,0.6-0.9s0.7-0.3,1.1-0.3s0.7,0.1,1,0.2c0.3,0.1,0.5,0.3,0.6,0.6c0.1,0.2,0.2,0.5,0.3,0.7
		c0.1,0.3,0.1,0.6,0.1,1.1v1.8c0,0.6,0,1.1-0.1,1.4c0,0.3-0.2,0.6-0.3,0.8c-0.2,0.3-0.4,0.5-0.6,0.6c-0.3,0.1-0.6,0.2-0.9,0.2
		c-0.4,0-0.7-0.1-0.9-0.2c-0.3-0.1-0.5-0.3-0.6-0.5s-0.2-0.5-0.3-0.8s-0.1-0.8-0.1-1.4L292.3,247.9z M293.6,250.7
		c0,0.4,0.3,0.7,0.6,0.7c0.4,0,0.6-0.3,0.6-0.7V247c0-0.4-0.3-0.7-0.6-0.7c-0.4,0-0.6,0.3-0.6,0.7V250.7z M289.1,252.5h1.5v-5.3
		l1.8-4.6h-1.7l-1,3.4l-1-3.4H287l1.9,4.6L289.1,252.5z"/>
</g>
<g>
	<g>
		<path class="st2" d="M22.3,311.5l-3.1-3.1c1.8-2.5,1.6-6-0.7-8.2c-2.5-2.5-6.5-2.5-9,0s-2.5,6.5,0,9c2.2,2.2,5.7,2.5,8.2,0.7
			l3.1,3.1c0.4,0.4,1.1,0.4,1.5,0C22.7,312.6,22.7,311.9,22.3,311.5z M11,307.7c-1.7-1.7-1.7-4.4,0-6c1.7-1.7,4.4-1.7,6,0
			c1.7,1.7,1.7,4.4,0,6C15.3,309.4,12.6,309.4,11,307.7z"/>
	</g>
</g>
<g>
	<g>
		<path class="st1" d="M95.5,297.8H81.7c-0.5,0-0.9,0.4-0.9,0.9v0.5c0,0.5,0.4,0.9,0.9,0.9h13.8c0.5,0,0.9-0.4,0.9-0.9v-0.5
			C96.4,298.2,96,297.8,95.5,297.8z M95.5,302.6H81.7c-0.5,0-0.9,0.4-0.9,0.9v0.6c0,0.5,0.4,0.9,0.9,0.9h13.8c0.5,0,0.9-0.4,0.9-0.9
			v-0.6C96.4,303,96,302.6,95.5,302.6z M89.5,307.4h-7.8c-0.5,0-0.9,0.4-0.9,0.9v0.5c0,0.5,0.4,0.9,0.9,0.9h7.8
			c0.5,0,0.9-0.4,0.9-0.9v-0.5C90.4,307.9,90,307.4,89.5,307.4z"/>
	</g>
</g>
<g>
	<g>
		<path class="st3" d="M47.1,310.3c-1.4,0-2.5,1-2.5,2.3s1.1,2.3,2.5,2.3s2.5-1,2.5-2.3S48.5,310.3,47.1,310.3z M58.9,310.3
			c-1.4,0-2.5,1-2.5,2.3s1.1,2.3,2.5,2.3s2.5-1,2.5-2.3S60.3,310.3,58.9,310.3z M66.7,294.8h-2.8c-1.3,0-2.6,0.9-3,2l-0.5,1.3h-17
			c-0.5,0-0.9,0.2-1.2,0.6c-0.3,0.3-0.3,0.8-0.2,1.2l3.2,8.3c0.2,0.5,0.7,0.9,1.3,0.9h11.8l0,0l0,0c0.1,0,0.3,0,0.4-0.1h0.1
			c0.1,0,0.2-0.1,0.3-0.2l0,0c0.1-0.1,0.2-0.1,0.3-0.2c0,0,0,0,0-0.1c0.1-0.1,0.1-0.2,0.2-0.3l0,0l3.8-10.5c0-0.1,0.2-0.2,0.3-0.2
			h2.8c0.8,0,1.4-0.6,1.4-1.3C68.2,295.4,67.5,294.8,66.7,294.8z M57.4,306.4h-9.8l-2.2-5.6h14L57.4,306.4z"/>
	</g>
</g>
<path class="st1" d="M120.7,306.4l-1.9-1c-0.2-0.1-0.3-0.3-0.3-0.5v-0.7c0-0.1,0.1-0.1,0.1-0.2c0.2-0.4,0.4-0.7,0.6-1.2
	c0.3-0.1,0.5-0.4,0.5-0.7v-0.8c0-0.2-0.1-0.4-0.2-0.5v-1.1c0-0.1,0.1-0.8-0.4-1.3c-0.4-0.5-1.1-0.7-2-0.7s-1.6,0.2-2,0.7
	c-0.5,0.5-0.4,1.2-0.4,1.3v1.1c-0.1,0.1-0.2,0.3-0.2,0.5v0.8c0,0.2,0.1,0.5,0.3,0.6c0.2,0.7,0.6,1.3,0.7,1.4v0.7
	c0,0.2-0.1,0.4-0.3,0.5l-1.8,1c-0.6,0.3-0.9,0.9-0.9,1.6v0.6c0,0.9,3,1.2,4.6,1.2s4.6-0.3,4.6-1.2v-0.6
	C121.7,307.3,121.3,306.7,120.7,306.4z"/>
<g>
	<g>
		<path class="st1" d="M153.7,308.6c0,0.2,0,0.4-0.2,0.6l-1.8,1.8c-0.1,0.1-0.2,0.2-0.3,0.2c-0.1,0.1-0.3,0.1-0.4,0.1c0,0,0,0-0.1,0
			c0,0-0.1,0-0.2,0c-0.2,0-0.5,0-0.8-0.1c-0.4-0.1-0.9-0.2-1.4-0.4c-0.6-0.2-1.2-0.6-1.9-1.1s-1.5-1.1-2.3-1.9
			c-0.6-0.6-1.2-1.2-1.6-1.8c-0.4-0.6-0.8-1.1-1-1.6c-0.3-0.5-0.4-0.9-0.6-1.3c-0.1-0.4-0.2-0.7-0.3-1c0-0.3-0.1-0.5-0.1-0.7
			s0-0.3,0-0.3c0-0.1,0.1-0.3,0.1-0.4s0.1-0.2,0.2-0.3l1.8-1.8c0.1-0.1,0.3-0.2,0.4-0.2c0.1,0,0.2,0,0.3,0.1s0.2,0.2,0.2,0.3
			l1.5,2.8c0.1,0.1,0.1,0.3,0.1,0.5s-0.1,0.3-0.2,0.4l-0.7,0.7c0,0,0,0,0,0.1v0.1c0,0.2,0.1,0.4,0.2,0.7c0.1,0.2,0.3,0.5,0.5,0.8
			s0.6,0.7,1,1.1s0.8,0.8,1.1,1s0.6,0.4,0.8,0.5s0.4,0.2,0.5,0.2h0.2c0,0,0,0,0.1,0h0.1l0.8-0.8c0.2-0.1,0.4-0.2,0.6-0.2
			c0.2,0,0.3,0,0.4,0.1l0,0l2.7,1.6C153.5,308.3,153.6,308.5,153.7,308.6z"/>
	</g>
</g>
<path class="st1" d="M185.1,294.8c-5.5,0-10,4.5-10,10c0,2.1,0.6,4,1.7,5.6l-1.3,3.9l3.9-1.3c1.6,1.1,3.5,1.7,5.6,1.7
	c5.5,0,10-4.5,10-10C195.1,299.3,190.6,294.8,185.1,294.8z"/>
<path class="st4" d="M189.8,307.8c-0.8-0.8-1.6-1.4-1.6-1.4l-1.2,1.2l-4.7-4.7l1.2-1.2c0,0-0.6-0.8-1.4-1.6
	c-0.8-0.8-1.6-1.4-1.6-1.4s-1.4,1.3-1.5,2.3c-0.1,1.4,1.3,3.9,3.6,6.2s4.8,3.8,6.2,3.6c1-0.1,2.3-1.5,2.3-1.5
	S190.5,308.6,189.8,307.8z"/>
<path class="st5" d="M226.3,296.7c-0.3-0.3-0.7-0.3-1,0s-0.3,0.7,0,1l5.1,5.1h-16.9c-0.4,0-0.7,0.3-0.7,0.7c0,0.4,0.3,0.7,0.7,0.7
	h16.9l-5.1,5.1c-0.3,0.3-0.3,0.7,0,1s0.7,0.3,1,0l6.3-6.3c0.3-0.3,0.3-0.7,0-1L226.3,296.7z"/>
<g>
	<path class="st6" d="M45,342.6c0-10.5-8.5-19-19-19s-19,8.5-19,19c0,5.8,2.6,11,6.7,14.4c0,0,0.1,0.1,0.2,0.1
		c3.3,2.8,7.5,4.4,12.2,4.4c4.6,0,8.8-1.6,12.1-4.3c0.2,0,0.3-0.2,0.4-0.3C42.5,353.4,45,348.3,45,342.6z M8.7,342.6
		c0-9.5,7.8-17.3,17.3-17.3s17.3,7.8,17.3,17.3c0,4.7-1.8,8.9-4.8,12c-0.5-2.3-1.9-6.2-6.4-8.7c1-1.3,1.6-2.9,1.6-4.7
		c0-4.2-3.4-7.6-7.6-7.6s-7.6,3.4-7.6,7.6c0,1.7,0.6,3.3,1.6,4.7c-4.5,2.5-6,6.4-6.4,8.7C10.6,351.5,8.7,347.3,8.7,342.6z
		 M20.2,341.3c0-3.2,2.6-5.8,5.8-5.8s5.8,2.6,5.8,5.8c0,3.2-2.6,5.8-5.8,5.8S20.2,344.5,20.2,341.3z M15.2,356.1
		c0.1-1.4,0.9-6.2,6.1-8.8c1.3,1,2.9,1.6,4.7,1.6s3.4-0.6,4.7-1.6c5.2,2.7,6,7.3,6.2,8.8c-3,2.4-6.7,3.8-10.8,3.8
		C21.9,359.9,18.2,358.5,15.2,356.1z"/>
</g>
<g>
	<g>
		<path class="st3" d="M263.8,312.6l-3.7-3.7c2.2-3,1.9-7.2-0.8-9.9c-3-3-7.8-3-10.8,0s-3,7.8,0,10.8c2.6,2.6,6.9,3,9.9,0.8l3.7,3.7
			c0.5,0.5,1.3,0.5,1.8,0S264.2,313.1,263.8,312.6z M250.2,308.1c-2-2-2-5.3,0-7.2c2-2,5.3-2,7.2,0c2,2,2,5.3,0,7.2
			C255.3,310.1,252.1,310.1,250.2,308.1z"/>
	</g>
</g>
<path class="st1" d="M292.8,308.2l-2.5-1.3c-0.3-0.1-0.4-0.4-0.4-0.7v-0.9c0-0.1,0.1-0.1,0.1-0.3c0.3-0.5,0.5-0.9,0.8-1.6
	c0.4-0.1,0.7-0.5,0.7-0.9v-1c0-0.3-0.1-0.5-0.3-0.7v-1.4c0-0.1,0.1-1-0.5-1.7c-0.5-0.7-1.4-0.9-2.6-0.9s-2.1,0.3-2.6,0.9
	c-0.7,0.7-0.5,1.6-0.5,1.7v1.4c-0.1,0.1-0.3,0.4-0.3,0.7v1c0,0.3,0.1,0.7,0.4,0.8c0.3,0.9,0.8,1.7,0.9,1.8v0.9
	c0,0.3-0.1,0.5-0.4,0.7l-2.3,1.3c-0.8,0.4-1.2,1.2-1.2,2.1v0.8c0,1.2,3.9,1.6,6,1.6s6-0.4,6-1.6v-0.8
	C294.1,309.4,293.6,308.6,292.8,308.2z"/>
<g>
	<g>
		<path class="st1" d="M325.2,309.5c0,0.2,0,0.5-0.2,0.7l-2.2,2.2c-0.1,0.1-0.2,0.2-0.4,0.2c-0.1,0.1-0.4,0.1-0.5,0.1c0,0,0,0-0.1,0
			c0,0-0.1,0-0.2,0c-0.2,0-0.6,0-1-0.1c-0.5-0.1-1.1-0.2-1.7-0.5c-0.7-0.2-1.5-0.7-2.3-1.4c-0.9-0.6-1.8-1.4-2.8-2.3
			c-0.7-0.7-1.5-1.5-2-2.2s-1-1.4-1.2-2c-0.4-0.6-0.5-1.1-0.7-1.6c-0.1-0.5-0.2-0.9-0.4-1.2c0-0.4-0.1-0.6-0.1-0.9
			c0-0.2,0-0.4,0-0.4c0-0.1,0.1-0.4,0.1-0.5s0.1-0.2,0.2-0.4l2.2-2.2c0.1-0.1,0.4-0.2,0.5-0.2s0.2,0,0.4,0.1
			c0.2,0.1,0.2,0.2,0.2,0.4l1.8,3.4c0.1,0.1,0.1,0.4,0.1,0.6s-0.1,0.4-0.2,0.5l-0.9,0.9c0,0,0,0,0,0.1v0.1c0,0.2,0.1,0.5,0.2,0.9
			c0.1,0.2,0.4,0.6,0.6,1s0.7,0.9,1.2,1.4s1,1,1.4,1.2s0.7,0.5,1,0.6c0.2,0.1,0.5,0.2,0.6,0.2h0.2c0,0,0,0,0.1,0h0.1l1-1
			c0.2-0.1,0.5-0.2,0.7-0.2s0.4,0,0.5,0.1l0,0l3.3,2C325,309.1,325.1,309.3,325.2,309.5z"/>
	</g>
</g>
<g>
	<path class="st1" d="M519,282.2h-43c-0.2,0-0.5-0.1-0.7-0.3s-0.3-0.4-0.3-0.7l2-43c0-0.5,0.4-0.9,0.9-0.9h38.9
		c0.5,0,0.9,0.4,0.9,0.9l2,43c0,0.2-0.1,0.5-0.3,0.7S519.2,282.2,519,282.2z M477,280.4h41l-2-41.1h-37.1L477,280.4z"/>
	<path class="st1" d="M507.3,242.9c-0.5,0-0.9-0.4-0.9-0.9v-9c0-4.9-4-8.9-8.9-8.9s-8.9,4-8.9,8.9v9c0,0.5-0.4,0.9-0.9,0.9
		s-0.9-0.4-0.9-0.9v-9c0-5.9,4.8-10.7,10.7-10.7c5.9,0,10.7,4.8,10.7,10.7v9C508.2,242.5,507.8,242.9,507.3,242.9z"/>
</g>
<g>
	<g>
		<path class="st4" d="M367.3,302.6l-0.9-0.4c-0.2-0.1-0.2-0.3-0.2-0.4l0.3-0.9c0.3-0.9,0.2-1.8-0.3-2.5s-1.3-1.2-2.2-1.2
			c-0.3,0-0.7,0.1-1,0.2l-0.9,0.4c0,0,0,0-0.1,0s-0.3-0.1-0.3-0.2l-0.4-0.9c-0.4-1-1.4-1.6-2.5-1.6s-2,0.6-2.5,1.6l-0.4,0.9
			c-0.1,0.1-0.2,0.2-0.3,0.2c-0.1,0-0.1,0-0.1,0l-0.9-0.3c-0.3-0.1-0.6-0.2-1-0.2c-0.9,0-1.7,0.4-2.2,1.2c-0.5,0.7-0.6,1.6-0.3,2.5
			l0.3,0.9c0.1,0.2,0,0.4-0.2,0.4l-0.9,0.4c-1,0.4-1.6,1.4-1.6,2.5s0.6,2,1.6,2.4l0.9,0.4c0.2,0.1,0.2,0.3,0.2,0.4l-0.3,0.9
			c-0.3,0.9-0.2,1.8,0.3,2.5s1.3,1.2,2.2,1.2c0.3,0,0.7-0.1,1-0.2l0.9-0.4c0,0,0,0,0.1,0s0.3,0.1,0.3,0.2l0.4,0.9
			c0.4,1,1.4,1.6,2.5,1.6s2-0.6,2.5-1.6l0.4-0.9c0.1-0.1,0.2-0.2,0.3-0.2c0.1,0,0.1,0,0.1,0l0.9,0.4c0.3,0.1,0.7,0.2,1,0.2
			c0.9,0,1.7-0.4,2.2-1.2c0.5-0.7,0.6-1.6,0.3-2.5l-0.3-0.9c-0.1-0.2,0-0.4,0.2-0.4l0.9-0.4c1-0.4,1.6-1.4,1.6-2.5
			C368.9,304,368.3,303.1,367.3,302.6z M366.9,306.7l-0.9,0.4c-0.6,0.3-0.8,0.9-0.6,1.5l0.3,0.9c0.2,0.6,0.1,1.2-0.2,1.7
			c-0.4,0.5-0.9,0.8-1.5,0.8c-0.2,0-0.4,0-0.6-0.1l-0.9-0.4c-0.2-0.1-0.3-0.1-0.4-0.1c-0.5,0-0.9,0.3-1.1,0.7l-0.4,0.9
			c-0.3,0.7-0.9,1.1-1.7,1.1c-0.7,0-1.4-0.4-1.7-1.1l-0.4-0.9c-0.2-0.4-0.6-0.7-1.1-0.7c-0.2,0-0.3,0-0.4,0.1l-0.9,0.3
			c-0.2,0.1-0.4,0.1-0.6,0.1c-0.6,0-1.2-0.3-1.5-0.8s-0.4-1.1-0.2-1.7l0.3-0.9c0.2-0.6-0.1-1.3-0.6-1.5l-0.9-0.4
			c-0.7-0.3-1.1-0.9-1.1-1.6s0.4-1.4,1.1-1.7l0.9-0.4c0.6-0.3,0.8-0.9,0.6-1.5l-0.3-0.9c-0.2-0.6-0.1-1.2,0.2-1.7
			c0.5-0.7,1.4-1,2.1-0.7l0.9,0.3c0.2,0.1,0.3,0.1,0.4,0.1c0.5,0,0.9-0.3,1.1-0.7l0.4-0.9c0.3-0.7,1-1.1,1.7-1.1s1.4,0.4,1.7,1.1
			l0.4,0.9c0.2,0.4,0.6,0.7,1.1,0.7c0.2,0,0.3,0,0.4-0.1l0.9-0.3c0.8-0.3,1.7,0,2.1,0.7c0.3,0.5,0.4,1.1,0.2,1.7l-0.3,0.9
			c-0.2,0.6,0.1,1.3,0.6,1.5l0.9,0.4c0.7,0.3,1.1,0.9,1.1,1.7S367.6,306.4,366.9,306.7z M358.9,300.9c-2.3,0-4.2,1.9-4.2,4.2
			s1.9,4.2,4.2,4.2c2.3,0,4.2-1.9,4.2-4.2C363,302.8,361.2,300.9,358.9,300.9z M358.9,308.4c-1.8,0-3.3-1.5-3.3-3.3s1.5-3.3,3.3-3.3
			s3.3,1.5,3.3,3.3C362.2,306.9,360.7,308.4,358.9,308.4z"/>
	</g>
</g>
<path class="st7" d="M410.7,316l-5.7-5.7c1.2-1.5,2-3.5,2-5.6c0-5-4-9-9-9s-9,4-9,9s4,9,9,9c2.1,0,4.1-0.7,5.6-2l5.7,5.7
	c0.4,0.4,1,0.4,1.4,0S411.1,316.4,410.7,316z M398,311.7c-3.9,0-7-3.1-7-7s3.1-7,7-7s7,3.1,7,7S401.9,311.7,398,311.7z"/>
<path class="st7" d="M401,303.7h-2v-2c0-0.6-0.4-1-1-1s-1,0.4-1,1v2h-2c-0.6,0-1,0.4-1,1s0.4,1,1,1h2v2c0,0.6,0.4,1,1,1s1-0.4,1-1
	v-2h2c0.6,0,1-0.4,1-1S401.6,303.7,401,303.7z"/>
<path class="st7" d="M76,328.9c7.4,0,13.5,6.1,13.5,13.5s-6.1,13.5-13.5,13.5s-13.5-6.1-13.5-13.5S68.6,328.9,76,328.9 M76,327.4
	c-8.3,0-15,6.7-15,15s6.7,15,15,15s15-6.7,15-15S84.3,327.4,76,327.4L76,327.4z"/>
<path class="st7" d="M82,340.8l-8-5.3c-1.4-0.9-2.5-0.3-2.5,1.4V348c0,1.6,1.1,2.3,2.5,1.4l8-5.2C83.4,343.2,83.4,341.7,82,340.8z
	 M80.9,343l-7.1,4.6c-0.5,0.3-0.8,0.1-0.8-0.5v-9.5c0-0.6,0.4-0.8,0.8-0.5l7.1,4.7C81.4,342.2,81.4,342.7,80.9,343z"/>
<path class="st7" d="M435.3,296.7c-0.3-0.3-0.7-0.3-1,0s-0.3,0.7,0,1l5.1,5.1h-16.9c-0.4,0-0.7,0.3-0.7,0.7c0,0.4,0.3,0.7,0.7,0.7
	h16.9l-5.1,5.1c-0.3,0.3-0.3,0.7,0,1s0.7,0.3,1,0l6.3-6.3c0.3-0.3,0.3-0.7,0-1L435.3,296.7z"/>
<path class="st4" d="M481.7,316l-5.7-5.7c1.2-1.5,2-3.5,2-5.6c0-5-4-9-9-9s-9,4-9,9s4,9,9,9c2.1,0,4.1-0.7,5.6-2l5.7,5.7
	c0.4,0.4,1,0.4,1.4,0S482.1,316.4,481.7,316z M469,311.7c-3.9,0-7-3.1-7-7s3.1-7,7-7s7,3.1,7,7S472.9,311.7,469,311.7z"/>
<path class="st4" d="M472,303.7h-2v-2c0-0.6-0.4-1-1-1s-1,0.4-1,1v2h-2c-0.6,0-1,0.4-1,1s0.4,1,1,1h2v2c0,0.6,0.4,1,1,1s1-0.4,1-1
	v-2h2c0.6,0,1-0.4,1-1S472.6,303.7,472,303.7z"/>
<g>
	<path class="st1" d="M581.5,244.3h-25c-0.6,0-1,0.4-1,1s0.4,1,1,1h25c0.6,0,1-0.4,1-1S582.1,244.3,581.5,244.3z"/>
	<path class="st1" d="M556.5,238.3h10c0.6,0,1-0.4,1-1s-0.4-1-1-1h-10c-0.6,0-1,0.4-1,1S555.9,238.3,556.5,238.3z"/>
	<path class="st1" d="M581.5,252.3h-25c-0.6,0-1,0.4-1,1s0.4,1,1,1h25c0.6,0,1-0.4,1-1S582.1,252.3,581.5,252.3z"/>
	<path class="st1" d="M581.5,260.3h-25c-0.6,0-1,0.4-1,1c0,0.6,0.4,1,1,1h25c0.6,0,1-0.4,1-1C582.5,260.7,582.1,260.3,581.5,260.3z"
		/>
	<path class="st1" d="M581.5,268.3h-25c-0.6,0-1,0.4-1,1c0,0.6,0.4,1,1,1h25c0.6,0,1-0.4,1-1C582.5,268.7,582.1,268.3,581.5,268.3z"
		/>
	<path class="st1" d="M577.9,222.3h-32.4v60h47v-45.4L577.9,222.3z M578.5,225.7l10.6,10.6h-10.6V225.7z M547.5,280.3v-56h29v14h14
		v42H547.5z"/>
</g>
</svg>
